{
  "photos": {
    "page": 1,
    "pages": 10,
    "perpage": 25,
    "total": "232",
    "photo": [
      {
        "id": "49078403366",
        "owner": "113856435@N07",
        "secret": "845d7f71ca",
        "server": "65535",
        "farm": 66,
        "title": "A Publix \"Teetering\" on the Edge",
        "ispublic": 1,
        "isfriend": 0,
        "isfamily": 0
      },
      {
        "id": "49052727443",
        "owner": "30288215@N00",
        "secret": "3a02d2dcc8",
        "server": "65535",
        "farm": 66,
        "title": "2019.11.12. säärystimet teetee helmi 4619m",
        "ispublic": 1,
        "isfriend": 0,
        "isfamily": 0
      },
      {
        "id": "48995034048",
        "owner": "30288215@N00",
        "secret": "0c815ceac6",
        "server": "65535",
        "farm": 66,
        "title": "2019.11.01. säärystimet x4 teetee helmi 4613m",
        "ispublic": 1,
        "isfriend": 0,
        "isfamily": 0
      },
      {
        "id": "49063193416",
        "owner": "185269681@N03",
        "secret": "c78b41e99c",
        "server": "65535",
        "farm": 66,
        "title": "Totter Teeted",
        "ispublic": 1,
        "isfriend": 0,
        "isfamily": 0
      },
      {
        "id": "47110102881",
        "owner": "30288215@N00",
        "secret": "ee9d19c109",
        "server": "7863",
        "farm": 8,
        "title": "2019.02.16. sallapipo 4045m",
        "ispublic": 1,
        "isfriend": 0,
        "isfamily": 0
      },
      {
        "id": "33017417428",
        "owner": "30288215@N00",
        "secret": "565c8ca972",
        "server": "4818",
        "farm": 5,
        "title": "2019.01.27. alpakkasukat 3991m",
        "ispublic": 1,
        "isfriend": 0,
        "isfamily": 0
      },
      {
        "id": "43221239790",
        "owner": "30288215@N00",
        "secret": "89d9402e70",
        "server": "1952",
        "farm": 2,
        "title": "2018.09.29. sallapipo 3807m",
        "ispublic": 1,
        "isfriend": 0,
        "isfamily": 0
      },
      {
        "id": "28983808387",
        "owner": "30288215@N00",
        "secret": "3c14b6757d",
        "server": "1775",
        "farm": 2,
        "title": "2018.08.08. tuplalapaset 3721m",
        "ispublic": 1,
        "isfriend": 0,
        "isfamily": 0
      },
      {
        "id": "29969682408",
        "owner": "30288215@N00",
        "secret": "1482b83115",
        "server": "852",
        "farm": 1,
        "title": "2018.08.04. tuplalapaset x2 3717m",
        "ispublic": 1,
        "isfriend": 0,
        "isfamily": 0
      },
      {
        "id": "29906546598",
        "owner": "30288215@N00",
        "secret": "4f97b1abeb",
        "server": "1772",
        "farm": 2,
        "title": "2018.08.01. tuplalapaset x2 3711m",
        "ispublic": 1,
        "isfriend": 0,
        "isfamily": 0
      },
      {
        "id": "42851956605",
        "owner": "30288215@N00",
        "secret": "96671c70fc",
        "server": "930",
        "farm": 1,
        "title": "2018.07.31. tuplalapaset 3709m",
        "ispublic": 1,
        "isfriend": 0,
        "isfamily": 0
      },
      {
        "id": "42909124334",
        "owner": "30288215@N00",
        "secret": "41fb914de1",
        "server": "934",
        "farm": 1,
        "title": "2018.07.25. tuplalapaset x2 3706m",
        "ispublic": 1,
        "isfriend": 0,
        "isfamily": 0
      },
      {
        "id": "41734337540",
        "owner": "30288215@N00",
        "secret": "e657dafba6",
        "server": "1770",
        "farm": 2,
        "title": "2018.07.20. tuplalapaset XL",
        "ispublic": 1,
        "isfriend": 0,
        "isfamily": 0
      },
      {
        "id": "29631299248",
        "owner": "30288215@N00",
        "secret": "aa8b7d6e52",
        "server": "848",
        "farm": 1,
        "title": "2018.07.19. tuplalapaset 3700m",
        "ispublic": 1,
        "isfriend": 0,
        "isfamily": 0
      },
      {
        "id": "28476315447",
        "owner": "30288215@N00",
        "secret": "06169cc085",
        "server": "1786",
        "farm": 2,
        "title": "2018.07.11. tuplalapaset 3684m",
        "ispublic": 1,
        "isfriend": 0,
        "isfamily": 0
      },
      {
        "id": "43296068892",
        "owner": "30288215@N00",
        "secret": "fa33a21e48",
        "server": "1765",
        "farm": 2,
        "title": "2018.07.11. tuplalapaset 3683m",
        "ispublic": 1,
        "isfriend": 0,
        "isfamily": 0
      },
      {
        "id": "41712055775",
        "owner": "30288215@N00",
        "secret": "c2c9c8cee8",
        "server": "1737",
        "farm": 2,
        "title": "2018.06.06. cousteau pipo x2 3615m",
        "ispublic": 1,
        "isfriend": 0,
        "isfamily": 0
      },
      {
        "id": "41036331494",
        "owner": "30288215@N00",
        "secret": "c6302c7de7",
        "server": "974",
        "farm": 1,
        "title": "2018.04.28. myssy teetee pallas 3509m",
        "ispublic": 1,
        "isfriend": 0,
        "isfamily": 0
      },
      {
        "id": "39089258045",
        "owner": "30288215@N00",
        "secret": "c8a5c7ccc0",
        "server": "4746",
        "farm": 5,
        "title": "2018.01.30. anelmaiset 38-39  salla 3419m",
        "ispublic": 1,
        "isfriend": 0,
        "isfamily": 0
      },
      {
        "id": "28032674879",
        "owner": "30288215@N00",
        "secret": "90942797a1",
        "server": "4672",
        "farm": 5,
        "title": "2018.01.21. mittens 3407m",
        "ispublic": 1,
        "isfriend": 0,
        "isfamily": 0
      },
      {
        "id": "25827927598",
        "owner": "30288215@N00",
        "secret": "f97cffdabe",
        "server": "4617",
        "farm": 5,
        "title": "img_3400m",
        "ispublic": 1,
        "isfriend": 0,
        "isfamily": 0
      },
      {
        "id": "38991255394",
        "owner": "30288215@N00",
        "secret": "5f5327f270",
        "server": "4704",
        "farm": 5,
        "title": "img_3396m",
        "ispublic": 1,
        "isfriend": 0,
        "isfamily": 0
      },
      {
        "id": "25542949328",
        "owner": "127127864@N06",
        "secret": "d165d086e2",
        "server": "4685",
        "farm": 5,
        "title": "teete",
        "ispublic": 1,
        "isfriend": 0,
        "isfamily": 0
      },
      {
        "id": "38714118082",
        "owner": "128839278@N07",
        "secret": "562ff02e93",
        "server": "4545",
        "farm": 5,
        "title": "Cannabis law’s future in Calaveras teeters forward on split votes;",
        "ispublic": 1,
        "isfriend": 0,
        "isfamily": 0
      },
      {
        "id": "38408646161",
        "owner": "30288215@N00",
        "secret": "71bbb1b703",
        "server": "4548",
        "farm": 5,
        "title": "2017.11.14. salla kaulaliina 3323m",
        "ispublic": 1,
        "isfriend": 0,
        "isfamily": 0
      }
    ]
  },
  "stat": "ok"
}